ISS (ZARYA)
1 25544U 98067A   23203.12476910  .00011930  00000-0  21722-3 0  9991
2 25544  51.6411 155.4137 0000523  72.9869 282.0755 15.49927938407206

550@97.1
1 99078U          23163.94178262  .00000000  00000-0 -11394-2 0    01
2 99078  97.5138 280.5909 0016734 205.2381 161.2435 15.13998005    06
