# Nv = 120  Nvt = 280  Nvn = 272  Npoly = 236
mtllib 42.mtl

g Body1

v -0.405600 0.043000 -0.083000
v -0.404551 0.034270 -0.083000
v -0.401463 0.026037 -0.083000
v -0.396513 0.018769 -0.083000
v -0.389981 0.012882 -0.083000
v -0.382241 0.008710 -0.083000
v -0.373733 0.006490 -0.083000
v -0.364941 0.006350 -0.083000
v -0.356366 0.008296 -0.083000
v -0.348496 0.012219 -0.083000
v -0.341780 0.017895 -0.083000
v -0.336600 0.025000 -0.083000
v -0.336600 0.025000 -0.076300
v -0.341780 0.017895 -0.076300
v -0.348496 0.012219 -0.076300
v -0.356366 0.008296 -0.076300
v -0.364941 0.006350 -0.076300
v -0.373733 0.006490 -0.076300
v -0.382241 0.008710 -0.076300
v -0.389981 0.012882 -0.076300
v -0.396513 0.018769 -0.076300
v -0.401463 0.026037 -0.076300
v -0.404551 0.034270 -0.076300
v -0.405600 0.043000 -0.076300
v -0.405600 0.057000 -0.083000
v -0.405600 0.057000 -0.076300
v -0.336600 0.075000 -0.083000
v -0.341780 0.082105 -0.083000
v -0.348496 0.087781 -0.083000
v -0.356366 0.091704 -0.083000
v -0.364941 0.093650 -0.083000
v -0.373733 0.093510 -0.083000
v -0.382241 0.091290 -0.083000
v -0.389981 0.087118 -0.083000
v -0.396513 0.081231 -0.083000
v -0.401463 0.073963 -0.083000
v -0.404551 0.065730 -0.083000
v -0.404551 0.065730 -0.076300
v -0.401463 0.073963 -0.076300
v -0.396513 0.081231 -0.076300
v -0.389981 0.087118 -0.076300
v -0.382241 0.091290 -0.076300
v -0.373733 0.093510 -0.076300
v -0.364941 0.093650 -0.076300
v -0.356366 0.091704 -0.076300
v -0.348496 0.087781 -0.076300
v -0.341780 0.082105 -0.076300
v -0.336600 0.075000 -0.076300
v -0.324000 0.075000 -0.083000
v -0.324000 0.075000 -0.076300
v -0.324000 0.025000 -0.083000
v -0.324000 0.025000 -0.076300
v 0.000000 0.250000 -0.100000
v -0.324000 0.250000 -0.100000
v -0.324000 0.250000 -0.097000
v 0.000000 0.250000 -0.097000
v -0.324000 0.100000 -0.097000
v 0.000000 0.100000 -0.097000
v -0.324000 0.100000 0.000000
v 0.000000 0.100000 0.000000
v -0.324000 -0.150000 -0.100000
v 0.000000 -0.150000 -0.100000
v 0.000000 -0.150000 -0.097000
v -0.324000 -0.150000 -0.097000
v 0.000000 0.000000 -0.097000
v -0.324000 0.000000 -0.097000
v 0.081600 0.043000 -0.076300
v 0.081600 0.057000 -0.076300
v 0.080551 0.065730 -0.076300
v 0.077463 0.073963 -0.076300
v 0.072513 0.081231 -0.076300
v 0.065981 0.087118 -0.076300
v 0.058241 0.091290 -0.076300
v 0.049733 0.093510 -0.076300
v 0.040941 0.093650 -0.076300
v 0.032366 0.091704 -0.076300
v 0.024496 0.087781 -0.076300
v 0.017780 0.082105 -0.076300
v 0.012600 0.075000 -0.076300
v 0.000000 0.075000 -0.076300
v 0.000000 0.025000 -0.076300
v 0.012600 0.025000 -0.076300
v 0.017780 0.017895 -0.076300
v 0.024496 0.012219 -0.076300
v 0.032366 0.008296 -0.076300
v 0.040941 0.006350 -0.076300
v 0.049733 0.006490 -0.076300
v 0.058241 0.008710 -0.076300
v 0.065981 0.012882 -0.076300
v 0.072513 0.018769 -0.076300
v 0.077463 0.026037 -0.076300
v 0.080551 0.034270 -0.076300
v 0.081600 0.057000 -0.100000
v 0.080551 0.065730 -0.100000
v 0.077463 0.073963 -0.100000
v 0.072513 0.081231 -0.100000
v 0.065981 0.087118 -0.100000
v 0.058241 0.091290 -0.100000
v 0.049733 0.093510 -0.100000
v 0.040941 0.093650 -0.100000
v 0.032366 0.091704 -0.100000
v 0.024496 0.087781 -0.100000
v 0.017780 0.082105 -0.100000
v 0.012600 0.075000 -0.100000
v 0.000000 0.075000 -0.100000
v 0.000000 0.025000 -0.100000
v 0.012600 0.025000 -0.100000
v 0.017780 0.017895 -0.100000
v 0.024496 0.012219 -0.100000
v 0.032366 0.008296 -0.100000
v 0.040941 0.006350 -0.100000
v 0.049733 0.006490 -0.100000
v 0.058241 0.008710 -0.100000
v 0.065981 0.012882 -0.100000
v 0.072513 0.018769 -0.100000
v 0.077463 0.026037 -0.100000
v 0.080551 0.034270 -0.100000
v 0.081600 0.043000 -0.100000
v 0.000000 0.000000 0.000000
v -0.324000 0.000000 0.000000
vt -0.000670 -0.009696 0.000000
vt 0.000000 -0.009696 0.000000
vt -0.000670 -0.008814 0.000000
vt 0.000000 -0.008814 0.000000
vt 0.000000 -0.007933 0.000000
vt -0.000670 -0.007933 0.000000
vt 0.000000 -0.007051 0.000000
vt -0.000670 -0.007051 0.000000
vt 0.000000 -0.006170 0.000000
vt -0.000670 -0.006170 0.000000
vt -0.000000 -0.005288 0.000000
vt -0.000670 -0.005288 0.000000
vt -0.000000 -0.004407 0.000000
vt -0.000670 -0.004407 0.000000
vt -0.000000 -0.003526 0.000000
vt -0.000670 -0.003526 0.000000
vt -0.000000 -0.002644 0.000000
vt -0.000670 -0.002644 0.000000
vt -0.000000 -0.001763 0.000000
vt -0.000670 -0.001763 0.000000
vt 0.000000 -0.000881 0.000000
vt -0.000670 -0.000881 0.000000
vt -0.000670 -0.000000 0.000000
vt -0.000000 -0.000000 0.000000
vt 0.000000 0.000000 0.000000
vt 0.001400 0.000000 0.000000
vt -0.000000 0.000670 0.000000
vt 0.001400 0.000670 0.000000
vt -0.000670 -0.009696 0.000000
vt -0.000000 -0.009696 0.000000
vt -0.000670 -0.008814 0.000000
vt -0.000000 -0.008814 0.000000
vt -0.000000 -0.007933 0.000000
vt -0.000670 -0.007933 0.000000
vt 0.000000 -0.007051 0.000000
vt -0.000670 -0.007051 0.000000
vt 0.000000 -0.006170 0.000000
vt -0.000670 -0.006170 0.000000
vt 0.000000 -0.005288 0.000000
vt -0.000670 -0.005288 0.000000
vt 0.000000 -0.004407 0.000000
vt -0.000670 -0.004407 0.000000
vt 0.000000 -0.003526 0.000000
vt -0.000670 -0.003526 0.000000
vt 0.000000 -0.002644 0.000000
vt -0.000670 -0.002644 0.000000
vt 0.000000 -0.001763 0.000000
vt -0.000670 -0.001763 0.000000
vt 0.000000 -0.000881 0.000000
vt -0.000670 -0.000881 0.000000
vt -0.000670 -0.000000 0.000000
vt 0.000000 -0.000000 0.000000
vt 0.000000 0.000000 0.000000
vt 0.001260 -0.000000 0.000000
vt 0.000000 0.000670 0.000000
vt 0.001260 0.000670 0.000000
vt 0.000000 0.000000 0.000000
vt 0.001260 0.000000 0.000000
vt -0.000000 0.000670 0.000000
vt 0.001260 0.000670 0.000000
vt -0.002500 -0.004080 0.000000
vt 0.002500 -0.004080 0.000000
vt -0.002500 -0.002820 0.000000
vt 0.002500 -0.002820 0.000000
vt -0.000700 0.004080 0.000000
vt 0.000700 0.004080 0.000000
vt 0.003211 -0.002302 0.000000
vt 0.003778 -0.001630 0.000000
vt 0.004170 -0.000843 0.000000
vt 0.004365 0.000014 0.000000
vt 0.004351 0.000893 0.000000
vt 0.004129 0.001744 0.000000
vt 0.003712 0.002518 0.000000
vt 0.003123 0.003171 0.000000
vt 0.002396 0.003666 0.000000
vt 0.001573 0.003975 0.000000
vt -0.001573 0.003975 0.000000
vt -0.002396 0.003666 0.000000
vt -0.003123 0.003171 0.000000
vt -0.003712 0.002518 0.000000
vt -0.004129 0.001744 0.000000
vt -0.004351 0.000893 0.000000
vt -0.004365 0.000014 0.000000
vt -0.004170 -0.000843 0.000000
vt -0.003778 -0.001630 0.000000
vt -0.003211 -0.002302 0.000000
vt -0.002500 -0.004080 0.000000
vt 0.002500 -0.004080 0.000000
vt -0.002500 -0.002820 0.000000
vt 0.002500 -0.002820 0.000000
vt -0.000700 0.004080 0.000000
vt 0.000700 0.004080 0.000000
vt 0.003211 -0.002302 0.000000
vt 0.003778 -0.001630 0.000000
vt 0.004170 -0.000843 0.000000
vt 0.004365 0.000014 0.000000
vt 0.004351 0.000893 0.000000
vt 0.004129 0.001744 0.000000
vt 0.003712 0.002518 0.000000
vt 0.003123 0.003171 0.000000
vt 0.002396 0.003666 0.000000
vt 0.001573 0.003975 0.000000
vt -0.001573 0.003975 0.000000
vt -0.002396 0.003666 0.000000
vt -0.003123 0.003171 0.000000
vt -0.003712 0.002518 0.000000
vt -0.004129 0.001744 0.000000
vt -0.004351 0.000893 0.000000
vt -0.004365 0.000014 0.000000
vt -0.004170 -0.000843 0.000000
vt -0.003778 -0.001630 0.000000
vt -0.003211 -0.002302 0.000000
vt 0.000000 0.000000 0.000000
vt 0.032400 -0.000000 0.000000
vt 0.000000 0.000300 0.000000
vt 0.032400 0.000300 0.000000
vt -0.016200 -0.007500 0.000000
vt 0.016200 -0.007500 0.000000
vt -0.016200 0.007500 0.000000
vt 0.016200 0.007500 0.000000
vt 0.000000 0.000300 0.000000
vt 0.032400 0.000300 0.000000
vt 0.000000 0.010000 0.000000
vt 0.032400 0.010000 0.000000
vt 0.000000 0.000000 0.000000
vt 0.032400 0.000000 0.000000
vt -0.000000 0.000300 0.000000
vt 0.032400 0.000300 0.000000
vt -0.016200 -0.007500 0.000000
vt 0.016200 -0.007500 0.000000
vt -0.016200 0.007500 0.000000
vt 0.016200 0.007500 0.000000
vt 0.000700 -0.004080 0.000000
vt -0.002500 0.002820 0.000000
vt -0.000700 -0.004080 0.000000
vt -0.003211 0.002302 0.000000
vt -0.003778 0.001630 0.000000
vt 0.001573 -0.003975 0.000000
vt 0.002396 -0.003666 0.000000
vt 0.003123 -0.003171 0.000000
vt 0.003712 -0.002518 0.000000
vt 0.004129 -0.001744 0.000000
vt 0.004351 -0.000893 0.000000
vt 0.004365 -0.000014 0.000000
vt 0.004170 0.000843 0.000000
vt 0.003778 0.001630 0.000000
vt 0.003211 0.002302 0.000000
vt 0.002500 0.002820 0.000000
vt -0.002500 0.004080 0.000000
vt 0.002500 0.004080 0.000000
vt -0.004170 0.000843 0.000000
vt -0.004365 -0.000014 0.000000
vt -0.004351 -0.000893 0.000000
vt -0.004129 -0.001744 0.000000
vt -0.003712 -0.002518 0.000000
vt -0.003123 -0.003171 0.000000
vt -0.002396 -0.003666 0.000000
vt -0.001573 -0.003975 0.000000
vt 0.000670 0.009696 0.000000
vt -0.001700 0.009696 0.000000
vt 0.000670 0.008814 0.000000
vt -0.001700 0.008814 0.000000
vt -0.001700 0.007933 0.000000
vt 0.000670 0.007933 0.000000
vt -0.001700 0.007051 0.000000
vt 0.000670 0.007051 0.000000
vt -0.001700 0.006170 0.000000
vt 0.000670 0.006170 0.000000
vt -0.001700 0.005288 0.000000
vt 0.000670 0.005288 0.000000
vt -0.001700 0.004407 0.000000
vt 0.000670 0.004407 0.000000
vt -0.001700 0.003526 0.000000
vt 0.000670 0.003526 0.000000
vt -0.001700 0.002644 0.000000
vt 0.000670 0.002644 0.000000
vt -0.001700 0.001763 0.000000
vt 0.000670 0.001763 0.000000
vt -0.001700 0.000881 0.000000
vt 0.000670 0.000881 0.000000
vt 0.000670 0.000000 0.000000
vt -0.001700 0.000000 0.000000
vt 0.001260 0.001700 0.000000
vt 0.000000 0.001700 0.000000
vt 0.001260 -0.000670 0.000000
vt -0.000000 -0.000670 0.000000
vt 0.001260 0.001700 0.000000
vt -0.000000 0.001700 0.000000
vt 0.001260 -0.000670 0.000000
vt 0.000000 -0.000670 0.000000
vt 0.000670 0.009696 0.000000
vt -0.001700 0.009696 0.000000
vt 0.000670 0.008814 0.000000
vt -0.001700 0.008814 0.000000
vt -0.001700 0.007933 0.000000
vt 0.000670 0.007933 0.000000
vt -0.001700 0.007051 0.000000
vt 0.000670 0.007051 0.000000
vt -0.001700 0.006170 0.000000
vt 0.000670 0.006170 0.000000
vt -0.001700 0.005288 0.000000
vt 0.000670 0.005288 0.000000
vt -0.001700 0.004407 0.000000
vt 0.000670 0.004407 0.000000
vt -0.001700 0.003526 0.000000
vt 0.000670 0.003526 0.000000
vt -0.001700 0.002644 0.000000
vt 0.000670 0.002644 0.000000
vt -0.001700 0.001763 0.000000
vt 0.000670 0.001763 0.000000
vt -0.001700 0.000881 0.000000
vt 0.000670 0.000881 0.000000
vt 0.000670 0.000000 0.000000
vt -0.001700 0.000000 0.000000
vt 0.001400 0.001700 0.000000
vt 0.000000 0.001700 0.000000
vt 0.001400 -0.000670 0.000000
vt -0.000000 -0.000670 0.000000
vt 0.007500 -0.000000 0.000000
vt 0.010000 0.000300 0.000000
vt 0.007500 0.002370 0.000000
vt 0.010000 0.010000 0.000000
vt 0.000000 0.010000 0.000000
vt 0.025000 -0.000000 0.000000
vt 0.025000 0.000300 0.000000
vt 0.002500 0.002370 0.000000
vt 0.000000 0.000300 0.000000
vt 0.002500 -0.000000 0.000000
vt -0.015000 0.000000 0.000000
vt -0.015000 0.000300 0.000000
vt -0.000000 0.000300 0.000000
vt 0.032400 0.000300 0.000000
vt -0.000000 0.010000 0.000000
vt 0.032400 0.010000 0.000000
vt 0.007500 0.001700 0.000000
vt 0.010000 0.000300 0.000000
vt 0.007500 0.002370 0.000000
vt 0.010000 0.010000 0.000000
vt -0.000000 0.010000 0.000000
vt 0.002500 0.001700 0.000000
vt -0.000000 0.000300 0.000000
vt 0.025000 0.000000 0.000000
vt -0.015000 -0.000000 0.000000
vt -0.015000 0.000300 0.000000
vt 0.002500 0.002370 0.000000
vt 0.025000 0.000300 0.000000
vt 0.020000 -0.016200 0.000000
vt 0.020000 0.016200 0.000000
vt 0.002500 -0.016200 0.000000
vt -0.020000 0.016200 0.000000
vt -0.002500 -0.016200 0.000000
vt -0.020000 -0.016200 0.000000
vt 0.002500 -0.017460 0.000000
vt -0.002500 -0.017460 0.000000
vt 0.003211 -0.017978 0.000000
vt 0.003778 -0.018650 0.000000
vt 0.004170 -0.019437 0.000000
vt 0.004365 -0.020294 0.000000
vt 0.004351 -0.021173 0.000000
vt 0.004129 -0.022024 0.000000
vt 0.003712 -0.022798 0.000000
vt 0.003123 -0.023451 0.000000
vt 0.002396 -0.023946 0.000000
vt 0.001573 -0.024255 0.000000
vt 0.000700 -0.024360 0.000000
vt -0.000700 -0.024360 0.000000
vt -0.001573 -0.024255 0.000000
vt -0.002396 -0.023946 0.000000
vt -0.003123 -0.023451 0.000000
vt -0.003211 -0.017978 0.000000
vt -0.003712 -0.022798 0.000000
vt -0.003778 -0.018650 0.000000
vt -0.004129 -0.022024 0.000000
vt -0.004170 -0.019437 0.000000
vt -0.004351 -0.021173 0.000000
vt -0.004365 -0.020294 0.000000
vt 0.016200 0.005000 0.000000
vt -0.016200 0.005000 0.000000
vt 0.016200 -0.005000 0.000000
vt -0.016200 -0.005000 0.000000
vn -0.100000 0.000000 0.000000
vn -0.100000 0.000000 0.000000
vn -0.097153 -0.023693 0.000000
vn -0.097153 -0.023693 0.000000
vn -0.088773 -0.046036 0.000000
vn -0.088773 -0.046036 0.000000
vn -0.075338 -0.065758 0.000000
vn -0.075338 -0.065758 0.000000
vn -0.057613 -0.081736 0.000000
vn -0.057613 -0.081736 0.000000
vn -0.036607 -0.093059 -0.000000
vn -0.036607 -0.093059 -0.000000
vn -0.013517 -0.099082 -0.000000
vn -0.013517 -0.099082 -0.000000
vn 0.010344 -0.099464 -0.000000
vn 0.010344 -0.099464 -0.000000
vn 0.033615 -0.094181 -0.000000
vn 0.033615 -0.094181 -0.000000
vn 0.054972 -0.083535 -0.000000
vn 0.054972 -0.083535 -0.000000
vn 0.073198 -0.068132 -0.000000
vn 0.073198 -0.068132 -0.000000
vn 0.087257 -0.048850 -0.000000
vn 0.087257 -0.048850 -0.000000
vn -0.100000 -0.000000 0.000000
vn -0.100000 -0.000000 0.000000
vn 0.087257 0.048850 -0.000000
vn 0.087257 0.048850 -0.000000
vn 0.073198 0.068132 -0.000000
vn 0.073198 0.068132 -0.000000
vn 0.054972 0.083535 -0.000000
vn 0.054972 0.083535 -0.000000
vn 0.033615 0.094181 0.000000
vn 0.033615 0.094181 0.000000
vn 0.010344 0.099464 0.000000
vn 0.010344 0.099464 0.000000
vn -0.013517 0.099082 0.000000
vn -0.013517 0.099082 0.000000
vn -0.036607 0.093059 0.000000
vn -0.036607 0.093059 0.000000
vn -0.057613 0.081736 0.000000
vn -0.057613 0.081736 0.000000
vn -0.075338 0.065758 0.000000
vn -0.075338 0.065758 0.000000
vn -0.088773 0.046036 0.000000
vn -0.088773 0.046036 0.000000
vn -0.097153 0.023693 0.000000
vn -0.097153 0.023693 0.000000
vn -0.000000 0.100000 0.000000
vn -0.000000 0.100000 0.000000
vn -0.000000 0.100000 0.000000
vn -0.000000 0.100000 0.000000
vn -0.000000 -0.100000 -0.000000
vn -0.000000 -0.100000 -0.000000
vn -0.000000 -0.100000 -0.000000
vn -0.000000 -0.100000 -0.000000
vn -0.000000 0.000000 -0.100000
vn -0.000000 0.000000 -0.100000
vn -0.000000 0.000000 -0.100000
vn -0.000000 0.000000 -0.100000
vn -0.000000 0.000000 -0.100000
vn -0.000000 0.000000 -0.100000
vn -0.000000 0.000000 -0.100000
vn -0.000000 0.000000 -0.100000
vn -0.000000 0.000000 -0.100000
vn -0.000000 0.000000 -0.100000
vn -0.000000 0.000000 -0.100000
vn -0.000000 0.000000 -0.100000
vn -0.000000 0.000000 -0.100000
vn -0.000000 0.000000 -0.100000
vn -0.000000 0.000000 -0.100000
vn -0.000000 0.000000 -0.100000
vn -0.000000 0.000000 -0.100000
vn -0.000000 0.000000 -0.100000
vn -0.000000 0.000000 -0.100000
vn -0.000000 0.000000 -0.100000
vn -0.000000 0.000000 -0.100000
vn -0.000000 0.000000 -0.100000
vn -0.000000 0.000000 -0.100000
vn -0.000000 0.000000 -0.100000
vn -0.000000 0.000000 -0.100000
vn -0.000000 0.000000 -0.100000
vn 0.000000 -0.000000 0.100000
vn 0.000000 -0.000000 0.100000
vn 0.000000 -0.000000 0.100000
vn 0.000000 -0.000000 0.100000
vn 0.000000 -0.000000 0.100000
vn 0.000000 -0.000000 0.100000
vn 0.000000 -0.000000 0.100000
vn 0.000000 -0.000000 0.100000
vn 0.000000 -0.000000 0.100000
vn 0.000000 -0.000000 0.100000
vn 0.000000 -0.000000 0.100000
vn 0.000000 -0.000000 0.100000
vn 0.000000 -0.000000 0.100000
vn 0.000000 -0.000000 0.100000
vn 0.000000 -0.000000 0.100000
vn 0.000000 -0.000000 0.100000
vn 0.000000 -0.000000 0.100000
vn 0.000000 -0.000000 0.100000
vn 0.000000 -0.000000 0.100000
vn 0.000000 -0.000000 0.100000
vn 0.000000 -0.000000 0.100000
vn 0.000000 -0.000000 0.100000
vn 0.000000 -0.000000 0.100000
vn 0.000000 -0.000000 0.100000
vn 0.000000 -0.000000 0.100000
vn 0.000000 -0.000000 0.100000
vn -0.000000 0.100000 0.000000
vn -0.000000 0.100000 0.000000
vn -0.000000 0.100000 0.000000
vn -0.000000 0.100000 0.000000
vn 0.000000 -0.000000 0.100000
vn 0.000000 -0.000000 0.100000
vn 0.000000 -0.000000 0.100000
vn 0.000000 -0.000000 0.100000
vn -0.000000 0.100000 0.000000
vn -0.000000 0.100000 0.000000
vn -0.000000 0.100000 0.000000
vn -0.000000 0.100000 0.000000
vn 0.000000 -0.100000 -0.000000
vn 0.000000 -0.100000 -0.000000
vn 0.000000 -0.100000 -0.000000
vn 0.000000 -0.100000 -0.000000
vn 0.000000 -0.000000 0.100000
vn 0.000000 -0.000000 0.100000
vn 0.000000 -0.000000 0.100000
vn 0.000000 -0.000000 0.100000
vn 0.000000 -0.000000 0.100000
vn 0.000000 -0.000000 0.100000
vn 0.000000 -0.000000 0.100000
vn 0.000000 -0.000000 0.100000
vn 0.000000 -0.000000 0.100000
vn 0.000000 -0.000000 0.100000
vn 0.000000 -0.000000 0.100000
vn 0.000000 -0.000000 0.100000
vn 0.000000 -0.000000 0.100000
vn 0.000000 -0.000000 0.100000
vn 0.000000 -0.000000 0.100000
vn 0.000000 -0.000000 0.100000
vn 0.000000 -0.000000 0.100000
vn 0.000000 -0.000000 0.100000
vn 0.000000 -0.000000 0.100000
vn 0.000000 -0.000000 0.100000
vn 0.000000 -0.000000 0.100000
vn 0.000000 -0.000000 0.100000
vn 0.000000 -0.000000 0.100000
vn 0.000000 -0.000000 0.100000
vn 0.000000 -0.000000 0.100000
vn 0.000000 -0.000000 0.100000
vn 0.000000 -0.000000 0.100000
vn 0.000000 -0.000000 0.100000
vn 0.000000 -0.000000 0.100000
vn 0.000000 -0.000000 0.100000
vn 0.100000 0.000000 -0.000000
vn 0.100000 0.000000 -0.000000
vn 0.097153 0.023693 -0.000000
vn 0.097153 0.023693 -0.000000
vn 0.088773 0.046036 -0.000000
vn 0.088773 0.046036 -0.000000
vn 0.075338 0.065758 -0.000000
vn 0.075338 0.065758 -0.000000
vn 0.057613 0.081736 -0.000000
vn 0.057613 0.081736 -0.000000
vn 0.036607 0.093059 0.000000
vn 0.036607 0.093059 0.000000
vn 0.013517 0.099082 0.000000
vn 0.013517 0.099082 0.000000
vn -0.010344 0.099464 0.000000
vn -0.010344 0.099464 0.000000
vn -0.033615 0.094181 0.000000
vn -0.033615 0.094181 0.000000
vn -0.054972 0.083535 0.000000
vn -0.054972 0.083535 0.000000
vn -0.073198 0.068132 0.000000
vn -0.073198 0.068132 0.000000
vn -0.087257 0.048850 0.000000
vn -0.087257 0.048850 0.000000
vn 0.000000 0.100000 0.000000
vn 0.000000 0.100000 0.000000
vn 0.000000 0.100000 0.000000
vn 0.000000 0.100000 0.000000
vn 0.000000 -0.100000 -0.000000
vn 0.000000 -0.100000 -0.000000
vn 0.000000 -0.100000 -0.000000
vn 0.000000 -0.100000 -0.000000
vn -0.087257 -0.048850 0.000000
vn -0.087257 -0.048850 0.000000
vn -0.073198 -0.068132 0.000000
vn -0.073198 -0.068132 0.000000
vn -0.054972 -0.083535 0.000000
vn -0.054972 -0.083535 0.000000
vn -0.033615 -0.094181 -0.000000
vn -0.033615 -0.094181 -0.000000
vn -0.010344 -0.099464 -0.000000
vn -0.010344 -0.099464 -0.000000
vn 0.013517 -0.099082 -0.000000
vn 0.013517 -0.099082 -0.000000
vn 0.036607 -0.093059 -0.000000
vn 0.036607 -0.093059 -0.000000
vn 0.057613 -0.081736 -0.000000
vn 0.057613 -0.081736 -0.000000
vn 0.075338 -0.065758 -0.000000
vn 0.075338 -0.065758 -0.000000
vn 0.088773 -0.046036 -0.000000
vn 0.088773 -0.046036 -0.000000
vn 0.097153 -0.023693 -0.000000
vn 0.097153 -0.023693 -0.000000
vn 0.100000 0.000000 -0.000000
vn 0.100000 -0.000000 -0.000000
vn 0.100000 0.000000 -0.000000
vn 0.100000 0.000000 -0.000000
vn 0.100000 0.000000 -0.000000
vn 0.100000 0.000000 -0.000000
vn 0.100000 0.000000 -0.000000
vn 0.100000 0.000000 -0.000000
vn 0.100000 0.000000 -0.000000
vn 0.100000 0.000000 -0.000000
vn 0.100000 0.000000 -0.000000
vn 0.100000 0.000000 -0.000000
vn 0.100000 0.000000 -0.000000
vn 0.100000 0.000000 -0.000000
vn 0.000000 -0.100000 -0.000000
vn 0.000000 -0.100000 -0.000000
vn 0.000000 -0.100000 -0.000000
vn 0.000000 -0.100000 -0.000000
vn -0.100000 -0.000000 0.000000
vn -0.100000 -0.000000 0.000000
vn -0.100000 -0.000000 0.000000
vn -0.100000 -0.000000 0.000000
vn -0.100000 -0.000000 0.000000
vn -0.100000 -0.000000 0.000000
vn -0.100000 -0.000000 0.000000
vn -0.100000 -0.000000 0.000000
vn -0.100000 -0.000000 0.000000
vn -0.100000 -0.000000 0.000000
vn -0.100000 -0.000000 0.000000
vn -0.100000 -0.000000 0.000000
vn -0.000000 0.000000 -0.100000
vn -0.000000 0.000000 -0.100000
vn -0.000000 0.000000 -0.100000
vn -0.000000 0.000000 -0.100000
vn -0.000000 0.000000 -0.100000
vn -0.000000 0.000000 -0.100000
vn -0.000000 0.000000 -0.100000
vn -0.000000 0.000000 -0.100000
vn -0.000000 0.000000 -0.100000
vn -0.000000 0.000000 -0.100000
vn -0.000000 0.000000 -0.100000
vn -0.000000 0.000000 -0.100000
vn -0.000000 0.000000 -0.100000
vn -0.000000 0.000000 -0.100000
vn -0.000000 0.000000 -0.100000
vn -0.000000 0.000000 -0.100000
vn -0.000000 0.000000 -0.100000
vn -0.000000 0.000000 -0.100000
vn -0.000000 0.000000 -0.100000
vn -0.000000 0.000000 -0.100000
vn -0.000000 0.000000 -0.100000
vn -0.000000 0.000000 -0.100000
vn -0.000000 0.000000 -0.100000
vn -0.000000 0.000000 -0.100000
vn -0.000000 0.000000 -0.100000
vn -0.000000 0.000000 -0.100000
vn -0.000000 0.000000 -0.100000
vn -0.000000 0.000000 -0.100000
vn -0.000000 0.000000 -0.100000
vn -0.000000 0.000000 -0.100000
vn 0.000000 -0.000000 0.100000
vn 0.000000 -0.000000 0.100000
vn 0.000000 -0.000000 0.100000
vn 0.000000 -0.000000 0.100000
usemtl Steel_-_Satin
f 24/1/1 1/2/2 23/3/3
f 23/3/3 1/2/2 2/4/4
f 23/3/3 2/4/4 3/5/5
f 23/3/3 3/5/5 22/6/6
f 22/6/6 3/5/5 4/7/7
f 22/6/6 4/7/7 21/8/8
f 21/8/8 4/7/7 5/9/9
f 21/8/8 5/9/9 20/10/10
f 20/10/10 5/9/9 6/11/11
f 20/10/10 6/11/11 19/12/12
f 19/12/12 6/11/11 7/13/13
f 19/12/12 7/13/13 18/14/14
f 18/14/14 7/13/13 8/15/15
f 18/14/14 8/15/15 17/16/16
f 17/16/16 8/15/15 9/17/17
f 17/16/16 9/17/17 16/18/18
f 16/18/18 9/17/17 10/19/19
f 16/18/18 10/19/19 15/20/20
f 15/20/20 10/19/19 11/21/21
f 15/20/20 11/21/21 14/22/22
f 14/22/22 11/21/21 13/23/23
f 13/23/23 11/21/21 12/24/24
f 25/25/25 1/26/2 26/27/26
f 26/27/26 1/26/2 24/28/1
f 48/29/27 27/30/28 47/31/29
f 47/31/29 27/30/28 28/32/30
f 47/31/29 28/32/30 29/33/31
f 47/31/29 29/33/31 46/34/32
f 46/34/32 29/33/31 30/35/33
f 46/34/32 30/35/33 45/36/34
f 45/36/34 30/35/33 31/37/35
f 45/36/34 31/37/35 44/38/36
f 44/38/36 31/37/35 32/39/37
f 44/38/36 32/39/37 43/40/38
f 43/40/38 32/39/37 33/41/39
f 43/40/38 33/41/39 42/42/40
f 42/42/40 33/41/39 34/43/41
f 42/42/40 34/43/41 41/44/42
f 41/44/42 34/43/41 35/45/43
f 41/44/42 35/45/43 40/46/44
f 40/46/44 35/45/43 36/47/45
f 40/46/44 36/47/45 39/48/46
f 39/48/46 36/47/45 37/49/47
f 39/48/46 37/49/47 38/50/48
f 38/50/48 37/49/47 26/51/26
f 26/51/26 37/49/47 25/52/25
f 49/53/49 27/54/50 50/55/51
f 50/55/51 27/54/50 48/56/52
f 12/57/53 51/58/54 13/59/55
f 13/59/55 51/58/54 52/60/56
f 49/61/57 51/62/58 27/63/59
f 27/63/59 51/62/58 12/64/60
f 27/63/59 12/64/60 25/65/61
f 25/65/61 12/64/60 1/66/62
f 1/66/62 12/64/60 11/67/63
f 1/66/62 11/67/63 10/68/64
f 10/68/64 9/69/65 1/66/62
f 1/66/62 9/69/65 8/70/66
f 1/66/62 8/70/66 7/71/67
f 7/71/67 6/72/68 1/66/62
f 1/66/62 6/72/68 5/73/69
f 1/66/62 5/73/69 4/74/70
f 4/74/70 3/75/71 1/66/62
f 1/66/62 3/75/71 2/76/72
f 37/77/73 36/78/74 25/65/61
f 25/65/61 36/78/74 35/79/75
f 25/65/61 35/79/75 34/80/76
f 34/80/76 33/81/77 25/65/61
f 25/65/61 33/81/77 32/82/78
f 25/65/61 32/82/78 31/83/79
f 31/83/79 30/84/80 25/65/61
f 25/65/61 30/84/80 29/85/81
f 25/65/61 29/85/81 28/86/82
f 28/86/82 27/63/59 25/65/61
f 52/87/83 50/88/84 13/89/85
f 13/89/85 50/88/84 48/90/86
f 13/89/85 48/90/86 24/91/87
f 24/91/87 48/90/86 26/92/88
f 26/92/88 48/90/86 47/93/89
f 26/92/88 47/93/89 46/94/90
f 46/94/90 45/95/91 26/92/88
f 26/92/88 45/95/91 44/96/92
f 26/92/88 44/96/92 43/97/93
f 43/97/93 42/98/94 26/92/88
f 26/92/88 42/98/94 41/99/95
f 26/92/88 41/99/95 40/100/96
f 40/100/96 39/101/97 26/92/88
f 26/92/88 39/101/97 38/102/98
f 23/103/99 22/104/100 24/91/87
f 24/91/87 22/104/100 21/105/101
f 24/91/87 21/105/101 20/106/102
f 20/106/102 19/107/103 24/91/87
f 24/91/87 19/107/103 18/108/104
f 24/91/87 18/108/104 17/109/105
f 17/109/105 16/110/106 24/91/87
f 24/91/87 16/110/106 15/111/107
f 24/91/87 15/111/107 14/112/108
f 14/112/108 13/89/85 24/91/87
f 53/113/109 54/114/110 56/115/111
f 56/115/111 54/114/110 55/116/112
f 56/117/113 55/118/114 58/119/115
f 58/119/115 55/118/114 57/120/116
usemtl Paint_-_Enamel_Glossy_(Blue)
f 58/121/117 57/122/118 60/123/119
f 60/123/119 57/122/118 59/124/120
usemtl Steel_-_Satin
f 61/125/121 62/126/122 64/127/123
f 64/127/123 62/126/122 63/128/124
f 65/129/125 66/130/126 63/131/127
f 63/131/127 66/130/126 64/132/128
f 68/133/129 82/134/130 67/135/131
f 67/135/131 82/134/130 83/136/132
f 67/135/131 83/136/132 84/137/133
f 68/133/129 69/138/134 82/134/130
f 82/134/130 69/138/134 70/139/135
f 82/134/130 70/139/135 71/140/136
f 71/140/136 72/141/137 82/134/130
f 82/134/130 72/141/137 73/142/138
f 82/134/130 73/142/138 74/143/139
f 74/143/139 75/144/140 82/134/130
f 82/134/130 75/144/140 76/145/141
f 82/134/130 76/145/141 77/146/142
f 77/146/142 78/147/143 82/134/130
f 82/134/130 78/147/143 79/148/144
f 82/134/130 79/148/144 81/149/145
f 81/149/145 79/148/144 80/150/146
f 84/137/133 85/151/147 67/135/131
f 67/135/131 85/151/147 86/152/148
f 67/135/131 86/152/148 87/153/149
f 87/153/149 88/154/150 67/135/131
f 67/135/131 88/154/150 89/155/151
f 67/135/131 89/155/151 90/156/152
f 90/156/152 91/157/153 67/135/131
f 67/135/131 91/157/153 92/158/154
f 68/159/155 93/160/156 69/161/157
f 69/161/157 93/160/156 94/162/158
f 69/161/157 94/162/158 95/163/159
f 69/161/157 95/163/159 70/164/160
f 70/164/160 95/163/159 96/165/161
f 70/164/160 96/165/161 71/166/162
f 71/166/162 96/165/161 97/167/163
f 71/166/162 97/167/163 72/168/164
f 72/168/164 97/167/163 98/169/165
f 72/168/164 98/169/165 73/170/166
f 73/170/166 98/169/165 99/171/167
f 73/170/166 99/171/167 74/172/168
f 74/172/168 99/171/167 100/173/169
f 74/172/168 100/173/169 75/174/170
f 75/174/170 100/173/169 101/175/171
f 75/174/170 101/175/171 76/176/172
f 76/176/172 101/175/171 102/177/173
f 76/176/172 102/177/173 77/178/174
f 77/178/174 102/177/173 103/179/175
f 77/178/174 103/179/175 78/180/176
f 78/180/176 103/179/175 79/181/177
f 79/181/177 103/179/175 104/182/178
f 104/183/179 105/184/180 79/185/181
f 79/185/181 105/184/180 80/186/182
f 106/187/183 107/188/184 81/189/185
f 81/189/185 107/188/184 82/190/186
f 82/191/187 107/192/188 83/193/189
f 83/193/189 107/192/188 108/194/190
f 83/193/189 108/194/190 109/195/191
f 83/193/189 109/195/191 84/196/192
f 84/196/192 109/195/191 110/197/193
f 84/196/192 110/197/193 85/198/194
f 85/198/194 110/197/193 111/199/195
f 85/198/194 111/199/195 86/200/196
f 86/200/196 111/199/195 112/201/197
f 86/200/196 112/201/197 87/202/198
f 87/202/198 112/201/197 113/203/199
f 87/202/198 113/203/199 88/204/200
f 88/204/200 113/203/199 114/205/201
f 88/204/200 114/205/201 89/206/202
f 89/206/202 114/205/201 115/207/203
f 89/206/202 115/207/203 90/208/204
f 90/208/204 115/207/203 116/209/205
f 90/208/204 116/209/205 91/210/206
f 91/210/206 116/209/205 117/211/207
f 91/210/206 117/211/207 92/212/208
f 92/212/208 117/211/207 67/213/209
f 67/213/209 117/211/207 118/214/210
f 118/215/210 93/216/156 67/217/209
f 67/217/209 93/216/156 68/218/155
f 105/219/211 58/220/212 80/221/213
f 80/221/213 58/220/212 60/222/214
f 80/221/213 60/222/214 119/223/215
f 105/219/211 53/224/216 58/220/212
f 58/220/212 53/224/216 56/225/217
f 80/221/213 119/223/215 81/226/218
f 81/226/218 119/223/215 65/227/219
f 81/226/218 65/227/219 106/228/220
f 106/228/220 65/227/219 62/229/221
f 62/229/221 65/227/219 63/230/222
f 66/231/223 65/232/224 120/233/225
f 120/233/225 65/232/224 119/234/226
f 51/235/227 66/236/228 52/237/229
f 52/237/229 66/236/228 120/238/230
f 52/237/229 120/238/230 59/239/231
f 51/235/227 49/240/232 66/236/228
f 66/236/228 49/240/232 57/241/233
f 66/236/228 57/241/233 61/242/234
f 61/242/234 57/241/233 54/243/235
f 54/243/235 57/241/233 55/244/236
f 49/240/232 50/245/237 57/241/233
f 57/241/233 50/245/237 59/239/231
f 59/239/231 50/245/237 52/237/229
f 61/242/234 64/246/238 66/236/228
usemtl Paint_-_Enamel_Glossy_(Blue)
f 62/247/239 61/248/240 106/249/241
f 106/249/241 61/248/240 54/250/242
f 106/249/241 54/250/242 105/251/243
f 105/251/243 54/250/242 53/252/244
f 106/249/241 105/251/243 107/253/245
f 107/253/245 105/251/243 104/254/246
f 107/253/245 104/254/246 108/255/247
f 108/255/247 104/254/246 109/256/248
f 109/256/248 104/254/246 110/257/249
f 110/257/249 104/254/246 111/258/250
f 111/258/250 104/254/246 112/259/251
f 112/259/251 104/254/246 113/260/252
f 113/260/252 104/254/246 114/261/253
f 114/261/253 104/254/246 115/262/254
f 115/262/254 104/254/246 116/263/255
f 116/263/255 104/254/246 117/264/256
f 117/264/256 104/254/246 118/265/257
f 118/265/257 104/254/246 93/266/258
f 93/266/258 104/254/246 94/267/259
f 94/267/259 104/254/246 95/268/260
f 95/268/260 104/254/246 96/269/261
f 96/269/261 104/254/246 103/270/262
f 96/269/261 103/270/262 97/271/263
f 97/271/263 103/270/262 102/272/264
f 97/271/263 102/272/264 98/273/265
f 98/273/265 102/272/264 101/274/266
f 98/273/265 101/274/266 99/275/267
f 99/275/267 101/274/266 100/276/268
usemtl Steel_-_Satin
f 120/277/269 119/278/270 59/279/271
f 59/279/271 119/278/270 60/280/272
# 120 vertices
# 280 texture params
# 272 normals
# 236 facets

# 1 groups
