time,Var1
0 sec,0
60 sec,0
120 sec,0
180 sec,0
240 sec,0
300 sec,0
360 sec,0
420 sec,0
480 sec,0
540 sec,0
600 sec,0
660 sec,0
720 sec,0.0648379569551519
780 sec,0.434114806942861
840 sec,0.801376897841487
900 sec,1.16503392806895
960 sec,1.52351485754615
1020 sec,1.87527463846987
1080 sec,2.21880076894395
1140 sec,0
1200 sec,0
1260 sec,0
1320 sec,0
1380 sec,0
1440 sec,0
1500 sec,0
1560 sec,0
1620 sec,0
1680 sec,0
1740 sec,0
1800 sec,0
1860 sec,0
1920 sec,0
1980 sec,0
2040 sec,0
2100 sec,0
2160 sec,0
2220 sec,0
2280 sec,0
2340 sec,0
2400 sec,0
2460 sec,0
2520 sec,0
2580 sec,0
2640 sec,0
2700 sec,0
2760 sec,0
2820 sec,0
2880 sec,0
2940 sec,0
3000 sec,0
3060 sec,0
3120 sec,0
3180 sec,2.40771710069116
3240 sec,2.07077921437059
3300 sec,1.72488439053425
3360 sec,1.37150397237056
3420 sec,1.0121429883917
3480 sec,0.64833401917102
3540 sec,0.281630926011938
3600 sec,0
3660 sec,0
3720 sec,0
3780 sec,0
3840 sec,0
3900 sec,0
3960 sec,0
4020 sec,0
4080 sec,0
4140 sec,0
4200 sec,0
4260 sec,0
4320 sec,0
4380 sec,0
4440 sec,0
4500 sec,0
4560 sec,0
4620 sec,0
4680 sec,0
4740 sec,0
4800 sec,0
4860 sec,0
4920 sec,0
4980 sec,0
5040 sec,0
5100 sec,0
5160 sec,0
5220 sec,0
5280 sec,0
5340 sec,0
5400 sec,0
5460 sec,0
5520 sec,0
5580 sec,0
5640 sec,0
5700 sec,0
5760 sec,0
5820 sec,0
5880 sec,0
5940 sec,0
6000 sec,0
6060 sec,0
6120 sec,0
6180 sec,0
6240 sec,0
6300 sec,0
6360 sec,0
6420 sec,0
6480 sec,0.224417742414729
6540 sec,0.593153664351372
6600 sec,0.959185371236648
6660 sec,1.32092958050611
6720 sec,1.67682521116235
6780 sec,2.02534004102628
6840 sec,2.36497717602624
6900 sec,0
6960 sec,0
7020 sec,0
7080 sec,0
7140 sec,0
7200 sec,0
7260 sec,0
7320 sec,0
7380 sec,0
7440 sec,0
7500 sec,0
7560 sec,0
7620 sec,0
7680 sec,0
7740 sec,0
7800 sec,0
7860 sec,0
7920 sec,0
7980 sec,0
8040 sec,0
8100 sec,0
8160 sec,0
8220 sec,0
8280 sec,0
8340 sec,0
8400 sec,0
8460 sec,0
8520 sec,0
8580 sec,0
8640 sec,0
8700 sec,0
8760 sec,0
8820 sec,0
8880 sec,0
8940 sec,2.26458676749246
9000 sec,1.92347871103551
9060 sec,1.57403931214353
9120 sec,1.21775577126273
9180 sec,0.856146380212369
9240 sec,0.490754323797069
9300 sec,0.123141351769627
9360 sec,0
9420 sec,0
9480 sec,0
9540 sec,0
9600 sec,0
9660 sec,0
9720 sec,0
9780 sec,0
9840 sec,0
9900 sec,0
9960 sec,0
10020 sec,0
10080 sec,0
10140 sec,0
10200 sec,0
10260 sec,0
10320 sec,0
10380 sec,0
10440 sec,0
10500 sec,0
10560 sec,0
10620 sec,0
10680 sec,0
10740 sec,0
10800 sec,0
10860 sec,0
10920 sec,0
10980 sec,0
11040 sec,0
11100 sec,0
11160 sec,0
11220 sec,0
11280 sec,0
11340 sec,0
11400 sec,0
11460 sec,0
11520 sec,0
11580 sec,0
11640 sec,0
11700 sec,0
11760 sec,0
11820 sec,0
11880 sec,0
11940 sec,0
12000 sec,0
12060 sec,0
12120 sec,0
12180 sec,0.0142107219962556
12240 sec,0.38390458865669
12300 sec,0.751800597051485
12360 sec,1.11630541067185
12420 sec,1.47584405123316
12480 sec,1.82886665155526
12540 sec,2.17385503442667
12600 sec,0
12660 sec,0
12720 sec,0
12780 sec,0
12840 sec,0
12900 sec,0
12960 sec,0
13020 sec,0
13080 sec,0
13140 sec,0
13200 sec,0
13260 sec,0
13320 sec,0
13380 sec,0
13440 sec,0
13500 sec,0
13560 sec,0
13620 sec,0
13680 sec,0
13740 sec,0
13800 sec,0
13860 sec,0
13920 sec,0
13980 sec,0
14040 sec,0
14100 sec,0
14160 sec,0
14220 sec,0
14280 sec,0
14340 sec,0
14400 sec,0
14460 sec,0
14520 sec,0
14580 sec,0
14640 sec,0
14700 sec,2.11952628597231
14760 sec,1.77451401315254
14820 sec,1.42180339632099
14880 sec,1.06289639709857
14940 sec,0.699323444043109
15000 sec,0.332637172643918
15060 sec,0
15120 sec,0
15180 sec,0
15240 sec,0
15300 sec,0
15360 sec,0
15420 sec,0
15480 sec,0
15540 sec,0
15600 sec,0
15660 sec,0
15720 sec,0
15780 sec,0
15840 sec,0
15900 sec,0
15960 sec,0
16020 sec,0
16080 sec,0
16140 sec,0
16200 sec,0
16260 sec,0
16320 sec,0
16380 sec,0
16440 sec,0
16500 sec,0
16560 sec,0
16620 sec,0
16680 sec,0
16740 sec,0
16800 sec,0
16860 sec,0
16920 sec,0
16980 sec,0
17040 sec,0
17100 sec,0
17160 sec,0
17220 sec,0
17280 sec,0
17340 sec,0
17400 sec,0
17460 sec,0
17520 sec,0
17580 sec,0
17640 sec,0
17700 sec,0
17760 sec,0
17820 sec,0
17880 sec,0
17940 sec,0.173922430532574
18000 sec,0.54316879903405
18060 sec,0.909926740264026
18120 sec,1.27260954556403
18180 sec,1.62965181351861
18240 sec,1.97951613064198
18300 sec,2.32069956718289
18360 sec,0
18420 sec,0
18480 sec,0
18540 sec,0
18600 sec,0
18660 sec,0
18720 sec,0
18780 sec,0
18840 sec,0
18900 sec,0
18960 sec,0
19020 sec,0
19080 sec,0
19140 sec,0
19200 sec,0
19260 sec,0
19320 sec,0
19380 sec,0
19440 sec,0
19500 sec,0
19560 sec,0
19620 sec,0
19680 sec,0
19740 sec,0
19800 sec,0
19860 sec,0
19920 sec,0
19980 sec,0
20040 sec,0
20100 sec,0
20160 sec,0
20220 sec,0
20280 sec,0
20340 sec,0
20400 sec,2.3127537834333
20460 sec,1.97264869939682
20520 sec,1.62400159655881
20580 sec,1.26829608879003
20640 sec,0.907047788573263
20700 sec,0.541798122017461
20760 sec,0.174108010588851
20820 sec,0
20880 sec,0
20940 sec,0
21000 sec,0
21060 sec,0
21120 sec,0
21180 sec,0
21240 sec,0
21300 sec,0
21360 sec,0
21420 sec,0
21480 sec,0
21540 sec,0
21600 sec,0
21660 sec,0
21720 sec,0
21780 sec,0
21840 sec,0
21900 sec,0
21960 sec,0
22020 sec,0
22080 sec,0
22140 sec,0
22200 sec,0
22260 sec,0
22320 sec,0
22380 sec,0
22440 sec,0
22500 sec,0
22560 sec,0
22620 sec,0
22680 sec,0
22740 sec,0
22800 sec,0
22860 sec,0
22920 sec,0
22980 sec,0
23040 sec,0
23100 sec,0
23160 sec,0
23220 sec,0
23280 sec,0
23340 sec,0
23400 sec,0
23460 sec,0
23520 sec,0
23580 sec,0
23640 sec,0
23700 sec,0.333581446195952
23760 sec,0.702080934272599
23820 sec,1.06740373282631
23880 sec,1.42797104995393
23940 sec,1.78222832001349
24000 sec,2.12865180731699
24060 sec,0
24120 sec,0
24180 sec,0
24240 sec,0
24300 sec,0
24360 sec,0
24420 sec,0
24480 sec,0
24540 sec,0
24600 sec,0
24660 sec,0
24720 sec,0
24780 sec,0
24840 sec,0
24900 sec,0
24960 sec,0
25020 sec,0
25080 sec,0
25140 sec,0
25200 sec,0
25260 sec,0
25320 sec,0
25380 sec,0
25440 sec,0
25500 sec,0
25560 sec,0
25620 sec,0
25680 sec,0
25740 sec,0
25800 sec,0
25860 sec,0
25920 sec,0
25980 sec,0
26040 sec,0
26100 sec,0
26160 sec,2.16816718879457
26220 sec,1.82406863312147
26280 sec,1.4720593241282
26340 sec,1.11363802060096
26400 sec,0.750332862206005
26460 sec,0.383695121263907
26520 sec,0.015292829927611
26580 sec,0
26640 sec,0
26700 sec,0
26760 sec,0
26820 sec,0
26880 sec,0
26940 sec,0
27000 sec,0
27060 sec,0
27120 sec,0
27180 sec,0
27240 sec,0
27300 sec,0
27360 sec,0
27420 sec,0
27480 sec,0
27540 sec,0
27600 sec,0
27660 sec,0
27720 sec,0
27780 sec,0
27840 sec,0
27900 sec,0
27960 sec,0
28020 sec,0
28080 sec,0
28140 sec,0
28200 sec,0
28260 sec,0
28320 sec,0
28380 sec,0
28440 sec,0
28500 sec,0
28560 sec,0
28620 sec,0
28680 sec,0
28740 sec,0
28800 sec,0
28860 sec,0
28920 sec,0
28980 sec,0
29040 sec,0
29100 sec,0
29160 sec,0
29220 sec,0
29280 sec,0
29340 sec,0
29400 sec,0.123331879917351
29460 sec,0.493057936675683
29520 sec,0.860511920444054
29580 sec,1.22410382302546
29640 sec,1.58226404566965
29700 sec,1.9334501028488
29760 sec,2.27615314415095
29820 sec,0
29880 sec,0
29940 sec,0
30000 sec,0
30060 sec,0
30120 sec,0
30180 sec,0
30240 sec,0
30300 sec,0
30360 sec,0
30420 sec,0
30480 sec,0
30540 sec,0
30600 sec,0
30660 sec,0
30720 sec,0
30780 sec,0
30840 sec,0
30900 sec,0
30960 sec,0
31020 sec,0
31080 sec,0
31140 sec,0
31200 sec,0
31260 sec,0
31320 sec,0
31380 sec,0
31440 sec,0
31500 sec,0
31560 sec,0
31620 sec,0
31680 sec,0
31740 sec,0
31800 sec,0
31860 sec,2.3607968695506
31920 sec,2.02172567969986
31980 sec,1.67390221267273
32040 sec,1.31880636062613
32100 sec,0.957950920325574
32160 sec,0.592875421956434
32220 sec,0.225139821223683
32280 sec,0
32340 sec,0
32400 sec,0
32460 sec,0
32520 sec,0
32580 sec,0
32640 sec,0
32700 sec,0
32760 sec,0
32820 sec,0
32880 sec,0
32940 sec,0
33000 sec,0
33060 sec,0
33120 sec,0
33180 sec,0
33240 sec,0
33300 sec,0
33360 sec,0
33420 sec,0
33480 sec,0
33540 sec,0
33600 sec,0
33660 sec,0
33720 sec,0
33780 sec,0
33840 sec,0
33900 sec,0
33960 sec,0
34020 sec,0
34080 sec,0
34140 sec,0
34200 sec,0
34260 sec,0
34320 sec,0
34380 sec,0
34440 sec,0
34500 sec,0
34560 sec,0
34620 sec,0
34680 sec,0
34740 sec,0
34800 sec,0
34860 sec,0
34920 sec,0
34980 sec,0
35040 sec,0
35100 sec,0
35160 sec,0.283149871053662
35220 sec,0.652222295163575
35280 sec,1.01833315601507
35340 sec,1.37989997318907
35400 sec,1.73536360414842
35460 sec,2.08319487225965
35520 sec,0
35580 sec,0
35640 sec,0
35700 sec,0
35760 sec,0
35820 sec,0
35880 sec,0
35940 sec,0
36000 sec,0
36060 sec,0
36120 sec,0
36180 sec,0
36240 sec,0
36300 sec,0
36360 sec,0
36420 sec,0
36480 sec,0
36540 sec,0
36600 sec,0
36660 sec,0
36720 sec,0
36780 sec,0
36840 sec,0
36900 sec,0
36960 sec,0
37020 sec,0
37080 sec,0
37140 sec,0
37200 sec,0
37260 sec,0
37320 sec,0
37380 sec,0
37440 sec,0
37500 sec,0
37560 sec,0
37620 sec,2.21669720239904
37680 sec,1.87354349197864
37740 sec,1.52226697982673
37800 sec,1.16436308618624
37860 sec,0.801357524936018
37920 sec,0.434800067753407
37980 sec,0.0662581800851535
38040 sec,0
38100 sec,0
38160 sec,0
38220 sec,0
38280 sec,0
38340 sec,0
38400 sec,0
38460 sec,0
38520 sec,0
38580 sec,0
38640 sec,0
38700 sec,0
38760 sec,0
38820 sec,0
38880 sec,0
38940 sec,0
39000 sec,0
39060 sec,0
39120 sec,0
39180 sec,0
39240 sec,0
39300 sec,0
39360 sec,0
39420 sec,0
39480 sec,0
39540 sec,0
39600 sec,0
39660 sec,0
39720 sec,0
39780 sec,0
39840 sec,0
39900 sec,0
39960 sec,0
40020 sec,0
40080 sec,0
40140 sec,0
40200 sec,0
40260 sec,0
40320 sec,0
40380 sec,0
40440 sec,0
40500 sec,0
40560 sec,0
40620 sec,0
40680 sec,0
40740 sec,0
40800 sec,0
40860 sec,0.0726506360980543
40920 sec,0.442825527747847
40980 sec,0.810945248566962
41040 sec,1.17541661782668
41100 sec,1.53466596314996
41160 sec,1.88714584688577
41220 sec,2.23134161369833
41280 sec,0
41340 sec,0
41400 sec,0
41460 sec,0
41520 sec,0
41580 sec,0
41640 sec,0
41700 sec,0
41760 sec,0
41820 sec,0
41880 sec,0
41940 sec,0
42000 sec,0
42060 sec,0
42120 sec,0
42180 sec,0
42240 sec,0
42300 sec,0
42360 sec,0
42420 sec,0
42480 sec,0
42540 sec,0
42600 sec,0
42660 sec,0
42720 sec,0
42780 sec,0
42840 sec,0
42900 sec,0
42960 sec,0
43020 sec,0
43080 sec,0
43140 sec,0
43200 sec,0
43260 sec,0
43320 sec,2.40871133512532
43380 sec,2.07070491132992
43440 sec,1.72373639038105
43500 sec,1.36928180798901
43560 sec,1.00885100872759
43620 sec,0.643981489589089
43680 sec,0.276232103000297
43740 sec,0
43800 sec,0
43860 sec,0
43920 sec,0
43980 sec,0
44040 sec,0
44100 sec,0
44160 sec,0
44220 sec,0
44280 sec,0
44340 sec,0
44400 sec,0
44460 sec,0
44520 sec,0
44580 sec,0
44640 sec,0
44700 sec,0
44760 sec,0
44820 sec,0
44880 sec,0
44940 sec,0
45000 sec,0
45060 sec,0
45120 sec,0
45180 sec,0
45240 sec,0
45300 sec,0
45360 sec,0
45420 sec,0
45480 sec,0
45540 sec,0
45600 sec,0
45660 sec,0
45720 sec,0
45780 sec,0
45840 sec,0
45900 sec,0
45960 sec,0
46020 sec,0
46080 sec,0
46140 sec,0
46200 sec,0
46260 sec,0
46320 sec,0
46380 sec,0
46440 sec,0
46500 sec,0
46560 sec,0
46620 sec,0.232614372275101
46680 sec,0.602229085795144
46740 sec,0.969097964801672
46800 sec,1.33163496611902
46860 sec,1.68827649246658
46920 sec,2.03748804448177
46980 sec,2.37777068332189
47040 sec,0
47100 sec,0
47160 sec,0
47220 sec,0
47280 sec,0
47340 sec,0
47400 sec,0
47460 sec,0
47520 sec,0
47580 sec,0
47640 sec,0
47700 sec,0
47760 sec,0
47820 sec,0
47880 sec,0
47940 sec,0
48000 sec,0
48060 sec,0
48120 sec,0
48180 sec,0
48240 sec,0
48300 sec,0
48360 sec,0
48420 sec,0
48480 sec,0
48540 sec,0
48600 sec,0
48660 sec,0
48720 sec,0
48780 sec,0
48840 sec,0
48900 sec,0
48960 sec,0
49020 sec,0
49080 sec,2.26511161078885
49140 sec,1.92293383238246
49200 sec,1.57242158541953
49260 sec,1.2150668159424
49320 sec,0.852392675129941
49380 sec,0.485947296486786
49440 sec,0.117297441145246
49500 sec,0
49560 sec,0
49620 sec,0
49680 sec,0
49740 sec,0
49800 sec,0
49860 sec,0
49920 sec,0
49980 sec,0
50040 sec,0
50100 sec,0
50160 sec,0
50220 sec,0
50280 sec,0
50340 sec,0
50400 sec,0
50460 sec,0
50520 sec,0
50580 sec,0
50640 sec,0
50700 sec,0
50760 sec,0
50820 sec,0
50880 sec,0
50940 sec,0
51000 sec,0
51060 sec,0
51120 sec,0
51180 sec,0
51240 sec,0
51300 sec,0
51360 sec,0
51420 sec,0
51480 sec,0
51540 sec,0
51600 sec,0
51660 sec,0
51720 sec,0
51780 sec,0
51840 sec,0
51900 sec,0
51960 sec,0
52020 sec,0
52080 sec,0
52140 sec,0
52200 sec,0
52260 sec,0
52320 sec,0.021883260448463
52380 sec,0.392476041507342
52440 sec,0.761231082940647
52500 sec,1.12655215910231
52560 sec,1.48686164826601
52620 sec,1.8406072812171
52680 sec,2.18626871415142
52740 sec,0
52800 sec,0
52860 sec,0
52920 sec,0
52980 sec,0
53040 sec,0
53100 sec,0
53160 sec,0
53220 sec,0
53280 sec,0
53340 sec,0
53400 sec,0
53460 sec,0
53520 sec,0
53580 sec,0
53640 sec,0
53700 sec,0
53760 sec,0
53820 sec,0
53880 sec,0
53940 sec,0
54000 sec,0
54060 sec,0
54120 sec,0
54180 sec,0
54240 sec,0
54300 sec,0
54360 sec,0
54420 sec,0
54480 sec,0
54540 sec,0
54600 sec,0
54660 sec,0
54720 sec,0
54780 sec,0
54840 sec,2.11958165662922
54900 sec,1.77349935950963
54960 sec,1.41971764875477
55020 sec,1.05974328048769
55080 sec,0.695111581261949
55140 sec,0.327380162375062
55200 sec,0
55260 sec,0
55320 sec,0
55380 sec,0
55440 sec,0
55500 sec,0
55560 sec,0
55620 sec,0
55680 sec,0
55740 sec,0
55800 sec,0
55860 sec,0
55920 sec,0
55980 sec,0
56040 sec,0
56100 sec,0
56160 sec,0
56220 sec,0
56280 sec,0
56340 sec,0
56400 sec,0
56460 sec,0
56520 sec,0
56580 sec,0
56640 sec,0
56700 sec,0
56760 sec,0
56820 sec,0
56880 sec,0
56940 sec,0
57000 sec,0
57060 sec,0
57120 sec,0
57180 sec,0
57240 sec,0
57300 sec,0
57360 sec,0
57420 sec,0
57480 sec,0
57540 sec,0
57600 sec,0
57660 sec,0
57720 sec,0
57780 sec,0
57840 sec,0
57900 sec,0
57960 sec,0
58020 sec,0
58080 sec,0.181979476127972
58140 sec,0.552105732195914
58200 sec,0.919702466470133
58260 sec,1.28318019925341
58320 sec,1.64097100130947
58380 sec,1.99153516944334
58440 sec,2.33336771564931
58500 sec,0
58560 sec,0
58620 sec,0
58680 sec,0
58740 sec,0
58800 sec,0
58860 sec,0
58920 sec,0
58980 sec,0
59040 sec,0
59100 sec,0
59160 sec,0
59220 sec,0
59280 sec,0
59340 sec,0
59400 sec,0
59460 sec,0
59520 sec,0
59580 sec,0
59640 sec,0
59700 sec,0
59760 sec,0
59820 sec,0
59880 sec,0
59940 sec,0
60000 sec,0
60060 sec,0
60120 sec,0
60180 sec,0
60240 sec,0
60300 sec,0
60360 sec,0
60420 sec,0
60480 sec,0
60540 sec,2.31340570292902
60600 sec,1.97223489881693
60660 sec,1.62251836151143
60720 sec,1.26574442731265
60780 sec,0.903433547872498
60840 sec,0.537132080866966
60900 sec,0.168405945416251
60960 sec,0
61020 sec,0
61080 sec,0
61140 sec,0
61200 sec,0
61260 sec,0
61320 sec,0
61380 sec,0
61440 sec,0
61500 sec,0
61560 sec,0
61620 sec,0
61680 sec,0
61740 sec,0
61800 sec,0
61860 sec,0
61920 sec,0
61980 sec,0
62040 sec,0
62100 sec,0
62160 sec,0
62220 sec,0
62280 sec,0
62340 sec,0
62400 sec,0
62460 sec,0
62520 sec,0
62580 sec,0
62640 sec,0
62700 sec,0
62760 sec,0
62820 sec,0
62880 sec,0
62940 sec,0
63000 sec,0
63060 sec,0
63120 sec,0
63180 sec,0
63240 sec,0
63300 sec,0
63360 sec,0
63420 sec,0
63480 sec,0
63540 sec,0
63600 sec,0
63660 sec,0
63720 sec,0
63780 sec,0
63840 sec,0.342013965525711
63900 sec,0.711373803004258
63960 sec,1.07751469980371
64020 sec,1.43885520971574
64080 sec,1.79383835318303
64140 sec,2.14093821505296
64200 sec,0
64260 sec,0
64320 sec,0
64380 sec,0
64440 sec,0
64500 sec,0
64560 sec,0
64620 sec,0
64680 sec,0
64740 sec,0
64800 sec,0
64860 sec,0
64920 sec,0
64980 sec,0
65040 sec,0
65100 sec,0
65160 sec,0
65220 sec,0
65280 sec,0
65340 sec,0
65400 sec,0
65460 sec,0
65520 sec,0
65580 sec,0
65640 sec,0
65700 sec,0
65760 sec,0
65820 sec,0
65880 sec,0
65940 sec,0
66000 sec,0
66060 sec,0
66120 sec,0
66180 sec,0
66240 sec,0
66300 sec,2.16835118162363
66360 sec,1.82318635022698
66420 sec,1.47010909798284
66480 sec,1.11062295634246
66540 sec,0.746260944025078
66600 sec,0.378579293545661
66660 sec,0.00915105082769301
66720 sec,0
66780 sec,0
66840 sec,0
66900 sec,0
66960 sec,0
67020 sec,0
67080 sec,0
67140 sec,0
67200 sec,0
67260 sec,0
67320 sec,0
67380 sec,0
67440 sec,0
67500 sec,0
67560 sec,0
67620 sec,0
67680 sec,0
67740 sec,0
67800 sec,0
67860 sec,0
67920 sec,0
67980 sec,0
68040 sec,0
68100 sec,0
68160 sec,0
68220 sec,0
68280 sec,0
68340 sec,0
68400 sec,0
68460 sec,0
68520 sec,0
68580 sec,0
68640 sec,0
68700 sec,0
68760 sec,0
68820 sec,0
68880 sec,0
68940 sec,0
69000 sec,0
69060 sec,0
69120 sec,0
69180 sec,0
69240 sec,0
69300 sec,0
69360 sec,0
69420 sec,0
69480 sec,0
69540 sec,0.131249725505083
69600 sec,0.501856679920102
69660 sec,0.870150990558253
69720 sec,1.23453986801137
69780 sec,1.59345117448112
69840 sec,1.94534012248642
69900 sec,2.28869579018355
69960 sec,0
70020 sec,0
70080 sec,0
70140 sec,0
70200 sec,0
70260 sec,0
70320 sec,0
70380 sec,0
70440 sec,0
70500 sec,0
70560 sec,0
70620 sec,0
70680 sec,0
70740 sec,0
70800 sec,0
70860 sec,0
70920 sec,0
70980 sec,0
71040 sec,0
71100 sec,0
71160 sec,0
71220 sec,0
71280 sec,0
71340 sec,0
71400 sec,0
71460 sec,0
71520 sec,0
71580 sec,0
71640 sec,0
71700 sec,0
71760 sec,0
71820 sec,0
71880 sec,0
71940 sec,0
72000 sec,2.36157477324189
72060 sec,2.02144193801363
72120 sec,1.67255252774725
72180 sec,1.3163911336008
72240 sec,0.954475370858922
72300 sec,0.588349683797112
72360 sec,0.219579011516199
72420 sec,0
72480 sec,0
72540 sec,0
72600 sec,0
72660 sec,0
72720 sec,0
72780 sec,0
72840 sec,0
72900 sec,0
72960 sec,0
73020 sec,0
73080 sec,0
73140 sec,0
73200 sec,0
73260 sec,0
73320 sec,0
73380 sec,0
73440 sec,0
73500 sec,0
73560 sec,0
73620 sec,0
73680 sec,0
73740 sec,0
73800 sec,0
73860 sec,0
73920 sec,0
73980 sec,0
74040 sec,0
74100 sec,0
74160 sec,0
74220 sec,0
74280 sec,0
74340 sec,0
74400 sec,0
74460 sec,0
74520 sec,0
74580 sec,0
74640 sec,0
74700 sec,0
74760 sec,0
74820 sec,0
74880 sec,0
74940 sec,0
75000 sec,0
75060 sec,0
75120 sec,0
75180 sec,0
75240 sec,0
75300 sec,0.291443805318163
75360 sec,0.661377808914145
75420 sec,1.02830851630416
75480 sec,1.39065078222649
75540 sec,1.746843038618
75600 sec,2.09535391681519
75660 sec,0
75720 sec,0
75780 sec,0
75840 sec,0
75900 sec,0
75960 sec,0
76020 sec,0
76080 sec,0
76140 sec,0
76200 sec,0
76260 sec,0
76320 sec,0
76380 sec,0
76440 sec,0
76500 sec,0
76560 sec,0
76620 sec,0
76680 sec,0
76740 sec,0
76800 sec,0
76860 sec,0
76920 sec,0
76980 sec,0
77040 sec,0
77100 sec,0
77160 sec,0
77220 sec,0
77280 sec,0
77340 sec,0
77400 sec,0
77460 sec,0
77520 sec,0
77580 sec,0
77640 sec,0
77700 sec,0
77760 sec,2.21700875641488
77820 sec,1.87279259363572
77880 sec,1.52045136844381
77940 sec,1.16148525146678
78000 sec,0.797424816355431
78060 sec,0.429824778866278
78120 sec,0.0602576055246873
78180 sec,0
78240 sec,0
78300 sec,0
78360 sec,0
78420 sec,0
78480 sec,0
78540 sec,0
78600 sec,0
78660 sec,0
78720 sec,0
78780 sec,0
78840 sec,0
78900 sec,0
78960 sec,0
79020 sec,0
79080 sec,0
79140 sec,0
79200 sec,0
79260 sec,0
79320 sec,0
79380 sec,0
79440 sec,0
79500 sec,0
79560 sec,0
79620 sec,0
79680 sec,0
79740 sec,0
79800 sec,0
79860 sec,0
79920 sec,0
79980 sec,0
80040 sec,0
80100 sec,0
80160 sec,0
80220 sec,0
80280 sec,0
80340 sec,0
80400 sec,0
80460 sec,0
80520 sec,0
80580 sec,0
80640 sec,0
80700 sec,0
80760 sec,0
80820 sec,0
80880 sec,0
80940 sec,0
81000 sec,0.080429679581568
81060 sec,0.451486393621784
81120 sec,0.820447888468207
81180 sec,1.18571819234211
81240 sec,1.54572108285937
81300 sec,1.89890680847759
81360 sec,2.24375862953921
81420 sec,0
81480 sec,0
81540 sec,0
81600 sec,0
81660 sec,0
81720 sec,0
81780 sec,0
81840 sec,0
81900 sec,0
81960 sec,0
82020 sec,0
82080 sec,0
82140 sec,0
82200 sec,0
82260 sec,0
82320 sec,0
82380 sec,0
82440 sec,0
82500 sec,0
82560 sec,0
82620 sec,0
82680 sec,0
82740 sec,0
82800 sec,0
82860 sec,0
82920 sec,0
82980 sec,0
83040 sec,0
83100 sec,0
83160 sec,0
83220 sec,0
83280 sec,0
83340 sec,0
83400 sec,0
83460 sec,2.40961412200515
83520 sec,2.07055019938451
83580 sec,1.7225193032378
83640 sec,1.36700214440379
83700 sec,1.00551336496823
83760 sec,0.639595358102549
83820 sec,0.270811944973395
83880 sec,0
83940 sec,0
84000 sec,0
84060 sec,0
84120 sec,0
84180 sec,0
84240 sec,0
84300 sec,0
84360 sec,0
84420 sec,0
84480 sec,0
84540 sec,0
84600 sec,0
84660 sec,0
84720 sec,0
84780 sec,0
84840 sec,0
84900 sec,0
84960 sec,0
85020 sec,0
85080 sec,0
85140 sec,0
85200 sec,0
85260 sec,0
85320 sec,0
85380 sec,0
85440 sec,0
85500 sec,0
85560 sec,0
85620 sec,0
85680 sec,0
85740 sec,0
85800 sec,0
85860 sec,0
85920 sec,0
85980 sec,0
86040 sec,0
86100 sec,0
86160 sec,0
86220 sec,0
86280 sec,0
86340 sec,0
86400 sec,0
