<<<<<<<<<<<<<<<<<  42: The Mostly Harmless Simulator  >>>>>>>>>>>>>>>>>
************************** Simulation Control **************************
FAST                            !  Time Mode (FAST, REAL, EXTERNAL, or NOS3)
20000.0    0.1                 !  Sim Duration, Step Size [sec]
5.3                             !  File Output Interval [sec]
0                               !  RNG Seed
FALSE                           !  Graphics Front End?
Inp_Cmd.txt                     !  Command Script File Name
**************************  Reference Orbits  **************************
1                               !  Number of Reference Orbits
TRUE   Orb_PHASMA.txt              !  Input file name for Orb 0
*****************************  Spacecraft  *****************************
1                               !  Number of Spacecraft
TRUE  0 SC_PHASMA.txt           !  Existence, RefOrb, Input file for SC 0
***************************** Environment  *****************************
06 12 2023                      !  Date (UTC) (Month, Day, Year)
22 36 10.00                     !  Time (UTC) (Hr,Min,Sec)
37.0                            !  Leap Seconds (sec)
NOMINAL                         !  F10.7, Ap (USER, NOMINAL or TWOSIGMA)
140.0                           !  USER-provided F10.7
11.5                            !  USER-provided Ap 
IGRF                            !  Magfield (NONE,DIPOLE,IGRF)
8   8                           !  IGRF Degree and Order (<=10)
8   8                           !  Earth Gravity Model N and M (<=18)
2   0                           !  Mars Gravity Model N and M (<=18)
2   0                           !  Luna Gravity Model N and M (<=18)
TRUE   TRUE                   !  Aerodynamic Forces & Torques (Shadows)
TRUE                            !  Gravity Gradient Torques
TRUE   TRUE                     !  Solar Pressure Forces & Torques (Shadows)
FALSE                           !  Residual Magnetic Moment Torques
TRUE                            !  Gravity Perturbation Forces
FALSE                           !  Thruster Plume Forces & Torques
FALSE                           !  Contact Forces and Torques
FALSE                           !  CFD Slosh Forces and Torques
FALSE                            !  Albedo Effect on CSS Measurements
FALSE                            !  Output Environmental Torques to Files
********************* Celestial Bodies of Interest *********************
MEAN                            !  Ephem Option (MEAN, DE430, DE440)
FALSE                            !  Mercury
FALSE                            !  Venus
TRUE                            !  Earth and Luna
FALSE                            !  Mars and its moons
FALSE                            !  Jupiter and its moons
FALSE                            !  Saturn and its moons
FALSE                            !  Uranus and its moons
FALSE                            !  Neptune and its moons
FALSE                            !  Pluto and its moons
FALSE                           !  Asteroids and Comets
***************** Lagrange Point Systems of Interest ******************
FALSE                           !  Earth-Moon
FALSE                           !  Sun-Earth
FALSE                           !  Sun-Jupiter
************************* Ground Stations ***************************
5                                            ! Number of Ground Stations
TRUE  EARTH  -77.0  37.0  "GSFC"             ! Exists, World, Lng, Lat, Label
TRUE  EARTH  -155.6 19.0  "South Point"      ! Exists, World, Lng, Lat, Label
TRUE  EARTH  115.4 -29.0  "Dongara"          ! Exists, World, Lng, Lat, Label
TRUE  EARTH  -71.0 -33.0  "Santiago"         ! Exists, World, Lng, Lat, Label
TRUE  EARTH  22.8  37.2   "Leonidio"         ! Exists, World, Lng, Lat, Label
